^C:\USERS\PAUL WHITE\SOURCE\REPOS\CONNECTING\COMPILED_LABWORK\BUILDER.CPP
/c /Zi /nologo /W3 /WX- /diagnostics:classic /sdl /O2 /Oi /GL /D _MBCS /Gm- /EHsc /MD /GS /Gy /fp:precise /permissive- /Zc:wchar_t /Zc:forScope /Zc:inline /Fo"X64\RELEASE\\" /Fd"X64\RELEASE\VC141.PDB" /Gd /TP /FC C:\USERS\PAUL WHITE\SOURCE\REPOS\CONNECTING\COMPILED_LABWORK\BUILDER.CPP
^C:\USERS\PAUL WHITE\SOURCE\REPOS\CONNECTING\COMPILED_LABWORK\INFO.CPP
/c /Zi /nologo /W3 /WX- /diagnostics:classic /sdl /O2 /Oi /GL /D _MBCS /Gm- /EHsc /MD /GS /Gy /fp:precise /permissive- /Zc:wchar_t /Zc:forScope /Zc:inline /Fo"X64\RELEASE\\" /Fd"X64\RELEASE\VC141.PDB" /Gd /TP /FC C:\USERS\PAUL WHITE\SOURCE\REPOS\CONNECTING\COMPILED_LABWORK\INFO.CPP
^C:\USERS\PAUL WHITE\SOURCE\REPOS\CONNECTING\COMPILED_LABWORK\LEXER.CPP
/c /Zi /nologo /W3 /WX- /diagnostics:classic /sdl /O2 /Oi /GL /D _MBCS /Gm- /EHsc /MD /GS /Gy /fp:precise /permissive- /Zc:wchar_t /Zc:forScope /Zc:inline /Fo"X64\RELEASE\\" /Fd"X64\RELEASE\VC141.PDB" /Gd /TP /FC C:\USERS\PAUL WHITE\SOURCE\REPOS\CONNECTING\COMPILED_LABWORK\LEXER.CPP
^C:\USERS\PAUL WHITE\SOURCE\REPOS\CONNECTING\COMPILED_LABWORK\LOWLEVELFUNC.CPP
/c /Zi /nologo /W3 /WX- /diagnostics:classic /sdl /O2 /Oi /GL /D _MBCS /Gm- /EHsc /MD /GS /Gy /fp:precise /permissive- /Zc:wchar_t /Zc:forScope /Zc:inline /Fo"X64\RELEASE\\" /Fd"X64\RELEASE\VC141.PDB" /Gd /TP /FC C:\USERS\PAUL WHITE\SOURCE\REPOS\CONNECTING\COMPILED_LABWORK\LOWLEVELFUNC.CPP
^C:\USERS\PAUL WHITE\SOURCE\REPOS\CONNECTING\COMPILED_LABWORK\MAIN.CPP
/c /Zi /nologo /W3 /WX- /diagnostics:classic /sdl /O2 /Oi /GL /D _MBCS /Gm- /EHsc /MD /GS /Gy /fp:precise /permissive- /Zc:wchar_t /Zc:forScope /Zc:inline /Fo"X64\RELEASE\\" /Fd"X64\RELEASE\VC141.PDB" /Gd /TP /FC C:\USERS\PAUL WHITE\SOURCE\REPOS\CONNECTING\COMPILED_LABWORK\MAIN.CPP
